// Copyright (C) 2010 - Michael Baudin
//
// This file must be used under the terms of the CeCILL.
// This source file is licensed as described in the file COPYING, which
// you should have received as part of this distribution.  The terms
// are also available at
// http://www.cecill.info/licences/Licence_CeCILL_V2-en.txt
h = number_barygui ( 4 );
number_baryguiclose();
//delmenu(h.controlfig.figure_id,gettext("File"));
//delmenu(h.controlfig.figure_id,gettext("Edit"));
//delmenu(h.controlfig.figure_id,gettext("Tools"));
//toolbar(h.controlfig.figure_id,"off");
h = number_barygui ( 4 , 3 );
number_baryguiclose();
